^C:\USERS\MIDOM\DOCUMENTS\VISUAL STUDIO 2010\PROJECTS\FINAL GAME\FINAL GAME\GAME.CPP
C:\USERS\MIDOM\DOCUMENTS\VISUAL STUDIO 2010\PROJECTS\FINAL GAME\FINAL GAME\DEBUG\GAME.OBJ
C:\USERS\MIDOM\DOCUMENTS\VISUAL STUDIO 2010\PROJECTS\FINAL GAME\FINAL GAME\DEBUG\VC100.PDB
