^C:\USERS\MIDO MOSA\DOCUMENTS\VISUAL STUDIO 2010\PROJECTS\STUDENTS\STUDENTS\DEBUG\STUDENTS.EXE.INTERMEDIATE.MANIFEST
/nologo /verbose /outputresource:"c:\users\mido mosa\documents\visual studio 2010\Projects\students\Debug\students.exe;#1" /manifest Debug\students.exe.intermediate.manifest
^E:\ENG\PROJCT\STUDENTS\STUDENTS\DEBUG\STUDENTS.EXE.INTERMEDIATE.MANIFEST
/nologo /verbose /outputresource:"E:\eng\projct\students\Debug\students.exe;#1" /manifest Debug\students.exe.intermediate.manifest
^E:\ENG\STUDENTS\STUDENTS\DEBUG\STUDENTS.EXE.INTERMEDIATE.MANIFEST
/nologo /verbose /outputresource:"E:\eng\students\Debug\students.exe;#1" /manifest Debug\students.exe.intermediate.manifest
